"type","ac_name","engine_name","num_engines","op_pwr_code","op_type_code","itpl_code","drag_config","meas_est","source","date","slant_feet","speed_knot","temp_f","humid_pct","op_pwr_desc","pwr_1_val","pwr_1_unit","pwr_1_lwr","pwr_1_upr","pwr_2_val","pwr_2_unit","pwr_2_lwr","pwr_2_upr","pwr_3_val","pwr_3_unit","pwr_3_lwr","pwr_3_upr","n_mic","dir_deg","pnl_dB","pnlt_dB","al_dB","alt_dB","epnl_dB","sel_dB","selt_dB","cor_dB","spl_dB_f10","spl_dB_f11","spl_dB_f12","spl_dB_f13","spl_dB_f14","spl_dB_f15","spl_dB_f16","spl_dB_f17","spl_dB_f18","spl_dB_f19","spl_dB_f20","spl_dB_f21","spl_dB_f22","spl_dB_f23","spl_dB_f24","spl_dB_f25","spl_dB_f26","spl_dB_f27","spl_dB_f28","spl_dB_f29","spl_dB_f30","spl_dB_f31","spl_dB_f32","spl_dB_f33","spl_dB_f34","spl_dB_f35","spl_dB_f36","spl_dB_f37","spl_dB_f38","spl_dB_f39","spl_dB_f40"
"MIL","F-15A","F100-PW-100",2,"01","1","F","NO DRAG","MEAS","U.S.A.F.","07 MAY 1991",1000,350,59,70,"AFTERBURNER POWER",91,"% NC",0,0,NA,"",NA,NA,NA,"",NA,NA,"8",126.2,128.5,129.5,114.8,115.7,123,118.9,120,1,0,0,0,0,0,0,0,93.9,92.3,90.8,101.6,108.5,110.7,107,104.4,109.6,105.7,106.1,105.8,104.3,103,101.4,101.2,101.2,100.5,100.2,101,99.7,99,98,97
"MIL","F-15A","F100-PW-100",2,"03","1","V","NO DRAG","MEAS","U.S.A.F.","07 MAY 1991",1000,300,59,70,"TAKEOFF POWER",90,"% NC",70,93.5,NA,"",NA,NA,NA,"",NA,NA,"12",109.3,116.7,117.8,104.9,106,114.5,112,113.2,1.1,0,0,0,0,0,0,0,78.9,77.9,75.5,83.1,91.3,95.8,94.5,92.2,99.2,95.9,98,97.8,96.1,94.4,93.8,92.7,91.6,89.5,88,87,82.3,78,73,70
"MIL","F-15A","F100-PW-100",2,"04","1","V","NO DRAG","MEAS","U.S.A.F.","07 MAY 1991",1000,280,59,70,"CRUISE POWER",73.5,"% NC",70,93.5,NA,"",NA,NA,NA,"",NA,NA,"12",80.6,93.9,95.1,82,83.2,91.1,88.7,89.7,1.2,0,0,0,0,0,0,0,68.2,68.1,68,69.6,72,73.7,72.3,80.8,76.5,73.7,73.8,73.7,73.2,72.1,71.4,70.6,69.5,66.6,62.6,58,52.6,49,46.4,42
"MIL","F-15A","F100-PW-100",2,"05","1","P","LANDING CONFIGURATION","MEAS","U.S.A.F.","07 MAY 1991",1000,170,59,70,"APPROACH POWER",75,"% NC",71.5,94.2,NA,"",NA,NA,NA,"",NA,NA,"8",113.2,93.6,94.4,81.8,82.5,91.3,88.9,89.5,0.8,0,0,0,0,0,0,0,73.9,73.4,72.8,74.2,77.7,77.5,71.6,77.1,76,77.2,75.1,74.6,73.4,71.8,70.9,69,67.8,64.8,61.6,58.5,53.7,50.8,45,42
"MIL","F-15E","F100-PW-220",2,"01","1","F","NO DRAG","EST","U.S.A.F.","21 AUG 1995",1000,350,59,70,"AFTERBURNER POWER",91,"% NC",0,0,NA,"",NA,NA,NA,"",NA,NA,"8",126.2,128.5,129.5,114.8,115.7,123,118.9,120,1,0,0,0,0,0,0,0,93.9,92.3,90.8,101.6,108.5,110.7,107,104.4,109.6,105.7,106.1,105.8,104.3,103,101.4,101.2,101.2,100.5,100.2,101,99.7,99,98,97
"MIL","F-15E","F100-PW-220",2,"03","1","V","NO DRAG","EST","U.S.A.F.","21 AUG 1995",1000,300,59,70,"TAKEOFF POWER",90,"% NC",70,93.5,NA,"",NA,NA,NA,"",NA,NA,"12",109.3,116.7,117.8,104.9,106,114.5,112,113.2,1.1,0,0,0,0,0,0,0,78.9,77.9,75.5,83.1,91.3,95.8,94.5,92.2,99.2,95.9,98,97.8,96.1,94.4,93.8,92.7,91.6,89.5,88,87,82.3,78,73,70
"MIL","F-15E","F100-PW-220",2,"04","1","P","NO DRAG","EST","U.S.A.F.","21 AUG 1995",1000,280,59,70,"CRUISE POWER",73.5,"% NC",70,93.5,NA,"",NA,NA,NA,"",NA,NA,"12",80.6,93.9,95.1,82,83.2,91.1,88.7,89.7,1.2,0,0,0,0,0,0,0,68.2,68.1,68,69.6,72,73.7,72.3,80.8,76.5,73.7,73.8,73.7,73.2,72.1,71.4,70.6,69.5,66.6,62.6,58,52.6,49,46.4,42
"MIL","F-15E","F100-PW-220",2,"05","1","V","LANDING CONFIGURATION","EST","U.S.A.F.","21 AUG 1995",1000,170,59,70,"APPROACH POWER",75,"% NC",71.5,78.5,NA,"",NA,NA,NA,"",NA,NA,"8",113.2,93.6,94.4,81.8,82.5,91.3,88.9,89.5,0.8,0,0,0,0,0,0,0,73.9,73.4,72.8,74.2,77.7,77.5,71.6,77.1,76,77.2,75.1,74.6,73.4,71.8,70.9,69,67.8,64.8,61.6,58.5,53.7,50.8,45,42
"MIL","F-15E","F100-PW-229",2,"01","1","F","NO DRAG","EST","U.S.A.F.","21 AUG 1995",1000,350,59,70,"AFTERBURNER POWER",91,"% NC",0,0,NA,"",NA,NA,NA,"",NA,NA,"8",126.2,0,0,0,0,124.5,120.4,121.5,1,0,0,0,0,0,0,0,95.4,93.8,92.3,103.1,110,112.2,108.5,105.9,111.1,107.2,107.6,107.3,105.8,104.5,102.9,102.7,102.7,102,101.7,102.5,101.2,100.5,99.5,98.5
"MIL","F-15E","F100-PW-229",2,"03","1","V","NO DRAG","EST","U.S.A.F.","21 AUG 1995",1000,300,59,70,"TAKEOFF POWER",90,"% NC",70,93.5,NA,"",NA,NA,NA,"",NA,NA,"12",109.3,0,0,0,0,116,113.5,114.7,1.1,0,0,0,0,0,0,0,80.4,79.4,77,84.6,92.8,97.3,96,93.7,100.7,97.4,99.5,99.3,97.6,95.9,95.3,94.2,93.1,91,89.5,88.5,83.8,79.5,74.5,71.5
"MIL","F-15E","F100-PW-229",2,"04","1","P","NO DRAG","EST","U.S.A.F.","21 AUG 1995",1000,280,59,70,"CRUISE POWER",73.5,"% NC",70,93.5,NA,"",NA,NA,NA,"",NA,NA,"12",80.6,0,0,0,0,92.6,90.2,91.2,1.2,0,0,0,0,0,0,0,69.7,69.6,69.5,71.1,73.5,75.2,73.8,82.3,78,75.2,75.3,75.2,74.7,73.6,72.9,72.1,71,68.1,64.1,59.5,54.1,50.5,47.9,43.5
"MIL","F-15E","F100-PW-229",2,"05","1","V","LANDING CONFIGURATION","EST","U.S.A.F.","21 AUG 1995",1000,170,59,70,"APPROACH POWER",75,"% NC",71.5,78.5,NA,"",NA,NA,NA,"",NA,NA,"8",113.2,0,0,0,0,92.8,90.4,91,0.8,0,0,0,0,0,0,0,75.4,74.9,74.3,75.7,79.2,79,73.1,78.6,77.5,78.7,76.6,76.1,74.9,73.3,72.4,70.5,69.3,66.3,63.1,60,55.2,52.3,46.5,43.5
